<?xml version="1.0" encoding="UTF-8" standalone="no"?>
<!-- Created with Inkscape (http://www.inkscape.org/) -->

<svg
   xmlns:dc="http://purl.org/dc/elements/1.1/"
   xmlns:cc="http://creativecommons.org/ns#"
   xmlns:rdf="http://www.w3.org/1999/02/22-rdf-syntax-ns#"
   xmlns:svg="http://www.w3.org/2000/svg"
   xmlns="http://www.w3.org/2000/svg"
   xmlns:sodipodi="http://sodipodi.sourceforge.net/DTD/sodipodi-0.dtd"
   xmlns:inkscape="http://www.inkscape.org/namespaces/inkscape"
   width="48"
   height="48"
   viewBox="0 0 48.000003 48.000002"
   id="svg2"
   version="1.1"
   inkscape:version="0.91 r13725"
   sodipodi:docname="belt.svg">
  <defs
     id="defs4" />
  <sodipodi:namedview
     id="base"
     pagecolor="#ffffff"
     bordercolor="#666666"
     borderopacity="1.0"
     inkscape:pageopacity="0.0"
     inkscape:pageshadow="2"
     inkscape:zoom="11.313709"
     inkscape:cx="37.726797"
     inkscape:cy="25.745563"
     inkscape:document-units="px"
     inkscape:current-layer="layer1"
     showgrid="false"
     inkscape:window-width="1161"
     inkscape:window-height="654"
     inkscape:window-x="716"
     inkscape:window-y="24"
     inkscape:window-maximized="0"
     borderlayer="false"
     units="px"
     inkscape:snap-bbox="true" />
  <metadata
     id="metadata7">
    <rdf:RDF>
      <cc:Work
         rdf:about="">
        <dc:format>image/svg+xml</dc:format>
        <dc:type
           rdf:resource="http://purl.org/dc/dcmitype/StillImage" />
        <dc:title />
      </cc:Work>
    </rdf:RDF>
  </metadata>
  <g
     inkscape:label="Layer 1"
     inkscape:groupmode="layer"
     id="layer1"
     transform="translate(0,-1004.3624)">
    <path
       style="fill:#000000"
       d="m 23.978516,10.792969 c -10.625399,0.0043 -19.6297457,2.510589 -21.1425785,5.884765 -0.3799854,0.398667 -0.66003,2.585998 -0.6601563,5.15625 4.126e-4,2.25236 0.2169323,4.249065 0.5371094,4.953125 l 0,0.06836 0.03125,0 C 3.7195181,29.692736 10.072492,32.040101 18.697266,32.75 l 0.0613,3.182347 c 0.0013,0.130074 0.05844,0.118515 0.07921,0.143975 l 10.224712,-0.01515 c 0.38672,0.01 0.340439,-0.198701 0.326768,-0.38128 l 0.09708,-2.951373 c 8.194127,-0.699964 14.326662,-2.884574 15.636719,-5.570313 0.281324,-0.03257 0.5077,-2.319839 0.507812,-5.130859 -2.52e-4,-1.970113 -0.113332,-3.764973 -0.291015,-4.619141 -0.413422,-3.689752 -9.853109,-6.61306 -21.361336,-6.615237 z m -0.429688,3.115234 c 11.035457,-2.2e-4 20.165615,2.967672 20.392578,6.628906 0.179653,3.003998 -5.751819,5.631125 -14.455078,6.402344 l 0.05194,-2.488878 c -0.03589,-0.454423 -0.0343,-0.473583 -0.408998,-0.540916 L 18.969377,23.789991 c -0.305607,0.0034 -0.257794,0.192909 -0.26821,0.331104 l -0.0039,2.76953 C 10.155847,26.059371 4.166313,23.47392 3.9785156,20.537109 3.7522903,16.876097 12.514032,13.908297 23.548828,13.908203 Z m -3.449219,12.052735 7.871094,0 0,8.453124 -7.871094,0 z m 20.722657,0.07617 c 0.418541,-7.75e-4 0.758052,0.491866 0.757812,1.09961 2.4e-4,0.607743 -0.339271,1.100384 -0.757812,1.099609 -0.417779,-7.91e-4 -0.756099,-0.492973 -0.75586,-1.099609 -2.4e-4,-0.606637 0.338081,-1.098819 0.75586,-1.09961 z m -3.285157,1.00586 c 0.474629,-2.85e-4 0.859482,0.485154 0.859375,1.083984 1.07e-4,0.598831 -0.384746,1.08427 -0.859375,1.083985 -0.474629,2.85e-4 -0.859482,-0.485154 -0.859375,-1.083985 -1.07e-4,-0.59883 0.384746,-1.084269 0.859375,-1.083984 z m -16.347656,0.238281 0,6.064453 5.751953,0 0,-6.064453 z m 12.595703,0.576172 c 0.541083,-2.63e-4 0.979975,0.511195 0.980469,1.142578 4.3e-4,0.632146 -0.438733,1.144794 -0.980469,1.144531 C 33.24342,30.144794 32.804258,29.632146 32.804688,29 c 4.94e-4,-0.631383 0.439386,-1.14284 0.980468,-1.142579 z"
       transform="translate(0,1004.3624)"
       id="path3399"
       inkscape:connector-curvature="0"
       sodipodi:nodetypes="ccccccccccccccccccccccccccccccccccccccccccccccccccc" />
    <ellipse
       style="fill:#000000"
       id="path3401"
       cx="44.903782"
       cy="1025.2113"
       rx="0.14984804"
       ry="0.052738946" />
    <ellipse
       style="fill:none"
       id="path3457"
       cx="-14.464286"
       cy="1015.9338"
       rx="4.5535712"
       ry="6.6071429" />
    <ellipse
       style="fill:none"
       id="path3459"
       cx="20.178572"
       cy="1025.3088"
       rx="16.607143"
       ry="5.4464288" />
  </g>
</svg>
