<?xml version="1.0" encoding="UTF-8" standalone="no"?>
<!-- Created with Inkscape (http://www.inkscape.org/) -->

<svg
   xmlns:dc="http://purl.org/dc/elements/1.1/"
   xmlns:cc="http://creativecommons.org/ns#"
   xmlns:rdf="http://www.w3.org/1999/02/22-rdf-syntax-ns#"
   xmlns:svg="http://www.w3.org/2000/svg"
   xmlns="http://www.w3.org/2000/svg"
   xmlns:sodipodi="http://sodipodi.sourceforge.net/DTD/sodipodi-0.dtd"
   xmlns:inkscape="http://www.inkscape.org/namespaces/inkscape"
   width="48"
   height="48"
   viewBox="0 0 12.7 12.7"
   version="1.1"
   id="svg8"
   inkscape:version="0.92.3 (2405546, 2018-03-11)"
   sodipodi:docname="bracelets.svg">
  <defs
     id="defs2" />
  <sodipodi:namedview
     id="base"
     pagecolor="#ffffff"
     bordercolor="#666666"
     borderopacity="1.0"
     inkscape:pageopacity="0.0"
     inkscape:pageshadow="2"
     inkscape:zoom="11.313709"
     inkscape:cx="24.308088"
     inkscape:cy="33.741075"
     inkscape:document-units="mm"
     inkscape:current-layer="layer1"
     showgrid="false"
     units="px"
     inkscape:window-width="1920"
     inkscape:window-height="1001"
     inkscape:window-x="-9"
     inkscape:window-y="-9"
     inkscape:window-maximized="1" />
  <metadata
     id="metadata5">
    <rdf:RDF>
      <cc:Work
         rdf:about="">
        <dc:format>image/svg+xml</dc:format>
        <dc:type
           rdf:resource="http://purl.org/dc/dcmitype/StillImage" />
        <dc:title></dc:title>
      </cc:Work>
    </rdf:RDF>
  </metadata>
  <g
     inkscape:label="Camada 1"
     inkscape:groupmode="layer"
     id="layer1"
     transform="translate(0,-284.3)">
    <path
       style="stroke-width:0.28448528"
       d="m 1.4040378,286.37676 c 1.1207271,2.38578 -1.68704286,2.12585 -0.93438667,3.26474 0.94814367,0.78052 2.10858137,1.59379 3.01338427,2.2338 l 1.0508776,-1.44008 c 0.044338,-0.0607 0.1362979,-0.0624 0.2056932,-0.004 l 0.261924,0.22214 c 0.069333,0.0588 0.088877,0.15502 0.044542,0.21578 l -1.0169648,1.39361 c 0.050491,0.0363 0.1423376,0.10061 0.1881395,0.13391 l 0.1910507,0.14283 0.9967001,-1.36585 c 0.044338,-0.0607 0.1356721,-0.063 0.2050051,-0.004 l 0.2619239,0.22215 c 0.069333,0.0588 0.089565,0.15554 0.04523,0.21638 l -0.9727119,1.33296 4.5584658,3.41216 c 1.0439674,0.66401 3.5666864,-2.66979 2.7450824,-3.62823 -0.105862,-0.10638 -0.170604,-0.17292 -0.269874,-0.27296 -0.0035,0.2242 -0.01982,0.43461 -0.04997,0.64669 -1.2e-4,6.9e-4 -4.68e-4,10e-4 -5.52e-4,10e-4 l 2.38e-4,9.9e-4 c -0.35621,1.56735 -1.177187,2.42271 -2.6115846,3.02211 -0.029681,0.004 -0.06305,0.005 -0.094021,0.009 l -0.086192,-0.0739 c 0.750228,-0.35342 1.3640376,-0.72417 1.9494866,-1.43763 0.754965,-1.28447 0.650094,-1.29652 0.780569,-2.26483 l 0.106005,0.0899 c -1.451377,-1.46213 -2.2990065,-2.33767 -4.3662638,-4.40156 -0.7592592,-0.80824 -2.6886559,-2.8564 -3.3439229,-3.39496 -1.3227693,-0.61517 -0.4966227,2.35652 -2.8578822,1.7269 z m 0.7742112,0.67225 c 0.260917,0.0561 0.4800099,0.063 0.6656504,0.0333 0.1855908,-0.0297 0.338214,-0.0959 0.4659196,-0.18653 0.2554611,-0.18156 0.4120483,-0.46082 0.5399311,-0.73851 0.1278711,-0.27766 0.2264515,-0.55435 0.3654889,-0.73046 0.070018,-0.0875 0.1493967,-0.15056 0.2478251,-0.17609 0.098431,-0.0255 0.2160354,-0.0137 0.3606786,0.048 -0.2486142,0.67218 -2.9842293,5.13334 -3.6384237,4.81105 -0.077618,-0.12601 -0.1063309,-0.23515 -0.098986,-0.33352 0.00734,-0.0983 0.050732,-0.18641 0.1174847,-0.27012 0.1340049,-0.16702 0.3612288,-0.31758 0.5800027,-0.50356 0.2187741,-0.18596 0.4288773,-0.40752 0.5285728,-0.716 0.04991,-0.15416 0.071857,-0.33003 0.053779,-0.53427 -0.018104,-0.20423 -0.076555,-0.4364 -0.1880564,-0.70358 z"
       id="rect12"
       inkscape:connector-curvature="0"
       sodipodi:nodetypes="cccscsscccssssccccccccccccccccccccccsccscscccc" />
  </g>
</svg>
