<?xml version="1.0" encoding="UTF-8" standalone="no"?>
<svg
   xmlns:dc="http://purl.org/dc/elements/1.1/"
   xmlns:cc="http://creativecommons.org/ns#"
   xmlns:rdf="http://www.w3.org/1999/02/22-rdf-syntax-ns#"
   xmlns:svg="http://www.w3.org/2000/svg"
   xmlns="http://www.w3.org/2000/svg"
   xmlns:sodipodi="http://sodipodi.sourceforge.net/DTD/sodipodi-0.dtd"
   xmlns:inkscape="http://www.inkscape.org/namespaces/inkscape"
   viewBox="0 0 512 512"
   id="svg2"
   version="1.1"
   inkscape:version="0.91 r13725"
   sodipodi:docname="mailed-fist.svg">
  <metadata
     id="metadata12">
    <rdf:RDF>
      <cc:Work
         rdf:about="">
        <dc:format>image/svg+xml</dc:format>
        <dc:type
           rdf:resource="http://purl.org/dc/dcmitype/StillImage" />
      </cc:Work>
    </rdf:RDF>
  </metadata>
  <defs
     id="defs10" />
  <sodipodi:namedview
     pagecolor="#ffffff"
     bordercolor="#666666"
     borderopacity="1"
     objecttolerance="10"
     gridtolerance="10"
     guidetolerance="10"
     inkscape:pageopacity="0"
     inkscape:pageshadow="2"
     inkscape:window-width="640"
     inkscape:window-height="480"
     id="namedview8"
     showgrid="false"
     inkscape:zoom="0.4609375"
     inkscape:cx="204.42818"
     inkscape:cy="237.84749"
     inkscape:window-x="75"
     inkscape:window-y="24"
     inkscape:window-maximized="0"
     inkscape:current-layer="svg2"
     inkscape:object-paths="true"
     inkscape:snap-bbox="true" />
  <path
     inkscape:connector-curvature="0"
     style="fill:#000000"
     d="m 214.59601,15.380519 c -1.306,0 -2.582,0.045 -3.813,0.125 -1.964,0.127 -3.778,0.385 -5.5,0.718 l -34.967,60.594 c 4.257,-1.103 8.72,-1.688 13.31,-1.688 21.424,0 39.93,12.778 48.407,31.094001 l 39.188,-67.844001 c -4.546,-5.766 -14.702,-13.066 -26.97,-17.53 -9.74,-3.546 -20.516,-5.473 -29.655,-5.47 z m 85.72,17.53 c -1.583,-0.03 -3.07,0.047 -4.47,0.188 l -44.53,77.157001 c 4.825,-1.446 9.935,-2.25 15.218,-2.25 20.817,0 38.924,12.05 47.718,29.532 l 43.156,-74.782001 c -4.125,-6.924 -13.916,-15.663 -25.78,-21.532 -10.44,-5.163 -22.204,-8.138 -31.313,-8.312 z m -162.5,29.344 c -10.902,0.22 -21.355,4.083 -32.5,12.22 -10.426001,7.609 -21.170002,19.143 -32.283002,34.343001 l 47.813002,16.28 34.656,-60.030001 c -5.398,-1.782 -10.563,-2.693 -15.5,-2.813 -0.73,-0.017 -1.46,-0.014 -2.187,0 z m 231.342,17.563 -44.812,77.656001 c 5.325,-1.817 11.015,-2.844 16.938,-2.844 20.334,0 38.045,11.61 46.906,28.532 l 36.97,-64 c -3.564,-8.5 -12.897,-19.255001 -24.19,-27.030001 -10.904,-7.514 -23.446,-11.974 -31.811,-12.314 z m -185.532,14 c -19.27,0 -34.718,15.448001 -34.718,34.750001 0,19.302 15.45,34.75 34.72,34.75 19.27,0 34.687,-15.445 34.687,-34.75 0,-19.302 -15.418,-34.750001 -34.69,-34.750001 z M 57.376008,123.25552 c -10.26,50.49 -9.262,102.094 6.065,146.062 0.186,0.536 0.372,1.06 0.562,1.594 l 0.188,-0.22 7.125,10.22 c 0.872,1.25 1.81,2.52 2.78,3.78 -0.837,-41.212 10.51,-89.245 37.438002,-143 l -54.158002,-18.434 z m 209.157002,3.437 c -19.27,0 -34.687,15.416 -34.687,34.72 0,19.3 15.417,34.75 34.688,34.75 19.27,0 34.718,-15.446 34.718,-34.75 0,-19.304 -15.448,-34.72 -34.72,-34.72 z m 169.282,12.688 -41.783,72.375 c -0.048,0.614 -0.087,1.235 -0.156,1.843 4.283,-1.206 8.784,-1.874 13.44,-1.874 21.296,0 39.572,13.55 46.717,32.438 l 36.532,-63.25 c -3.43,-8.86 -12.62,-20.092 -23.783,-28.313 -10.62,-7.82 -22.842,-12.6 -30.968,-13.218 z m -303.72,3.218 c -33.361001,63.759 -43.353002,117.979 -37.905001,160.595 0.133,1.044 0.286,2.063 0.437,3.094 20.050001,17.924 47.180001,35.918 76.250001,51.717 40.17,21.83 84.096,39.88 118.064,50.125 42.028,-15.246 84.304,-46.497 119.156,-96.468 -0.26,0.004 -0.52,0.03 -0.78,0.03 -27.474,0 -49.94,-22.483 -49.94,-49.968 0,-1.24 0.068,-2.468 0.158,-3.687 -5.125,1.664 -10.587,2.592 -16.25,2.592 -28.306,0 -51.592,-22.493 -52.907,-50.5 -6.677,3.02 -14.068,4.72 -21.842,4.72 -25.675,0 -47.22,-18.35 -52.25,-42.595 -8.685,6.134 -19.27,9.75 -30.657,9.75 -24.53,0 -45.332,-16.764 -51.53,-39.406 z m 209.189,30.719 c -19.033,0 -34.282,15.25 -34.282,34.313 0,19.063 15.25,34.312 34.28,34.312 19.034,0 34.252,-15.246 34.252,-34.313 0,-19.063 -15.218,-34.312 -34.25,-34.312 z m 66.03,57.125 c -17.362,0 -31.25,13.888 -31.25,31.28 0,17.394 13.888,31.283 31.25,31.283 17.364,0 31.25,-13.886 31.25,-31.282 0,-17.393 -13.886,-31.28 -31.25,-31.28 z m -343.561002,71.125 c -7.423,9.67 -14.177,19.17 -20.344,28.47 3.222,9.158 10.11,19.44 20.657,29.967 13.9,13.877 33.814001,28.027 57.810002,41.063 41.59,22.59 95.45,41.855 152.032,52.53 3.07,-8.944 5.834,-18.35 8.22,-28.25 -35.365,-10.748 -79.208,-28.665 -120.188,-50.936 -39.39,-21.407 -75.667002,-46.16 -98.188002,-72.844 z m -32.187,47.313 c -4.446,7.515 -8.483,14.866 -12.126,22.093 1.467,9.07 7.963,20.19 19.593,31.72 12.248,12.14 29.84,24.596 51.094,36.062 41.084002,22.16 95.780002,40.72 152.220002,49.187 l 17.375,0 c 2.59,-5.32 5.097,-10.844 7.47,-16.563 -57.277,-11.12 -111.46,-30.63 -154.25,-53.875 -25.160002,-13.666 -46.376002,-28.622 -62.064002,-44.28 -7.912,-7.9 -14.49,-16.006 -19.31,-24.344 z"
     id="path6"
     sodipodi:nodetypes="ccccsccccccccscccccccccccccccsccccccsssccccccccccccssscccccscccccccccccsscscscsccssssscsssccccccccsccccccccccccc" />
</svg>
