<!DOCTYPE svg PUBLIC "-//W3C//DTD SVG 20010904//EN" "http://www.w3.org/TR/2001/REC-SVG-20010904/DTD/svg10.dtd">
<svg version="1.0" xmlns="http://www.w3.org/2000/svg" width="225px" height="225px" viewBox="0 0 2250 2250" preserveAspectRatio="xMidYMid meet">
<g id="layer101" fill="#000000" stroke="none">
 <path d="M1057 2239 c-116 -17 -234 -113 -278 -227 -58 -148 -5 -341 119 -429 33 -24 41 -38 55 -92 10 -35 16 -65 15 -66 -2 -1 -25 -17 -53 -35 -69 -47 -262 -241 -317 -320 -106 -151 -194 -354 -234 -540 -14 -66 -19 -128 -19 -275 0 -104 3 -202 7 -216 9 -31 37 -41 70 -25 23 12 23 13 24 206 0 213 10 281 63 439 84 251 262 495 470 645 79 57 83 58 146 58 63 0 67 -1 146 -58 207 -149 386 -394 469 -643 53 -157 63 -228 64 -441 1 -193 1 -194 24 -206 33 -16 61 -6 70 25 4 14 7 112 7 216 0 147 -5 209 -19 275 -43 200 -138 410 -253 564 -68 90 -225 246 -300 297 -26 18 -49 33 -51 34 -1 1 5 31 15 66 14 54 22 68 55 92 87 62 141 173 141 292 1 103 -27 175 -93 248 -90 99 -202 137 -343 116z m188 -91 c66 -30 112 -74 144 -140 26 -51 31 -73 31 -132 0 -92 -29 -155 -99 -218 -117 -105 -275 -105 -392 0 -70 63 -99 126 -99 218 0 59 5 81 31 132 72 145 241 207 384 140z m-55 -649 c0 -13 -36 -29 -65 -29 -29 0 -65 16 -65 29 0 5 29 9 65 9 36 0 65 -4 65 -9z"/>
 <path d="M1080 2110 c-193 -38 -258 -286 -109 -413 117 -101 301 -62 368 76 27 55 28 146 2 202 -45 98 -156 156 -261 135z"/>
 </g>
<g id="layer102" fill="#ffffff" stroke="none">
 <path d="M0 1125 l0 -1125 198 1 c108 1 189 3 180 6 -28 7 -33 45 -33 248 0 147 5 209 19 275 40 186 128 389 234 540 55 79 248 273 317 320 28 18 51 34 53 35 1 1 -5 31 -15 66 -14 54 -22 68 -55 92 -45 32 -95 100 -122 165 -28 69 -26 190 3 264 44 114 162 210 278 227 36 5 -150 9 -499 10 l-558 1 0 -1125z"/>
 <path d="M1193 2239 c116 -17 234 -113 278 -227 58 -148 5 -341 -119 -429 -33 -24 -41 -38 -55 -92 -10 -35 -16 -65 -15 -66 2 -1 25 -16 51 -34 75 -51 232 -207 300 -297 115 -154 210 -364 253 -564 14 -66 19 -128 19 -275 0 -203 -5 -241 -33 -248 -9 -3 72 -5 181 -6 l197 -1 0 1125 0 1125 -557 -1 c-350 -1 -536 -5 -500 -10z"/>
 <path d="M1075 2170 c-92 -15 -170 -74 -214 -162 -26 -51 -31 -73 -31 -132 0 -92 29 -155 99 -218 117 -105 275 -105 392 0 70 63 99 126 99 218 0 59 -5 81 -31 132 -59 119 -184 184 -314 162z m155 -80 c151 -76 177 -284 49 -393 -154 -132 -390 -23 -389 179 1 179 182 293 340 214z"/>
 <path d="M1060 1499 c0 -13 36 -29 65 -29 29 0 65 16 65 29 0 5 -29 9 -65 9 -36 0 -65 -4 -65 -9z"/>
 <path d="M982 1306 c-208 -149 -388 -395 -473 -647 -53 -158 -63 -226 -63 -439 l-1 -194 -25 -13 c-20 -10 110 -13 705 -13 595 0 725 3 705 13 l-25 13 -1 194 c-1 213 -11 284 -64 441 -83 249 -262 494 -469 642 -76 56 -84 59 -143 60 -61 2 -64 1 -146 -57z"/>
 </g>

</svg>